{
  "apps": [
    {
      "name": "smalltsapp",
      "script": "./src/app.ts",
      "interpreter": "./node_modules/ts-node/dist/bin.js",
      "args": "--project ./tsconfig.json",

      "watch": true,
      "ignore_watch": [".idea", "node_modules", ".git", "package.json", "package-lock.json", "logs"],
      "watch_options": {"usePolling": true},
      "wait_ready": true,

      "combine_logs": true,
      "error_file": "logs/err.log",
      "out_file": "logs/out.log",
      "log_date_format": "YYYY-MM-DD HH:mm:ss Z",

      "env": {
        "NODE_ENV": "development"
      },
      "env_production": {
        "NODE_ENV": "production"
      }
    }
  ]
}